{
  "categories": {
    "href": "https://api.spotify.com/v1/browse/categories?country=NG&offset=0&limit=20",
    "items": [
      {
        "href": "https://api.spotify.com/v1/browse/categories/toplists",
        "icons": [
          {
            "height": 275,
            "url": "https://t.scdn.co/media/derived/toplists_11160599e6a04ac5d6f2757f5511778f_0_0_275_275.jpg",
            "width": 275
          }
        ],
        "id": "toplists",
        "name": "Top Lists"
      },
      {
        "href": "https://api.spotify.com/v1/browse/categories/0JQ5DAqbMKFNQ0fGp4byGU",
        "icons": [
          {
            "height": null,
            "url": "https://t.scdn.co/images/b505b01bbe0e490cbe43b07f16212892.jpeg",
            "width": null
          }
        ],
        "id": "0JQ5DAqbMKFNQ0fGp4byGU",
        "name": "Afro"
      },
      {
        "href": "https://api.spotify.com/v1/browse/categories/0JQ5DAqbMKFEC4WFtoNRpw",
        "icons": [
          {
            "height": 274,
            "url": "https://t.scdn.co/media/derived/pop-274x274_447148649685019f5e2a03a39e78ba52_0_0_274_274.jpg",
            "width": 274
          }
        ],
        "id": "0JQ5DAqbMKFEC4WFtoNRpw",
        "name": "Pop"
      },
      {
        "href": "https://api.spotify.com/v1/browse/categories/0JQ5DAqbMKFQ00XGBls6ym",
        "icons": [
          {
            "height": 274,
            "url": "https://t.scdn.co/media/original/hip-274_0a661854d61e29eace5fe63f73495e68_274x274.jpg",
            "width": 274
          }
        ],
        "id": "0JQ5DAqbMKFQ00XGBls6ym",
        "name": "Hip-Hop"
      },
      {
        "href": "https://api.spotify.com/v1/browse/categories/0JQ5DAqbMKFEZPnFQSFB1T",
        "icons": [
          {
            "height": 274,
            "url": "https://t.scdn.co/media/derived/r-b-274x274_fd56efa72f4f63764b011b68121581d8_0_0_274_274.jpg",
            "width": 274
          }
        ],
        "id": "0JQ5DAqbMKFEZPnFQSFB1T",
        "name": "R&B"
      },
      {
        "href": "https://api.spotify.com/v1/browse/categories/0JQ5DAqbMKFF9bY76LXmfI",
        "icons": [
          {
            "height": null,
            "url": "https://t.scdn.co/images/cad629fb65a14de4beddb38510e27cb1",
            "width": null
          }
        ],
        "id": "0JQ5DAqbMKFF9bY76LXmfI",
        "name": "Frequency"
      },
      {
        "href": "https://api.spotify.com/v1/browse/categories/0JQ5DAqbMKFy0OenPG51Av",
        "icons": [
          {
            "height": 274,
            "url": "https://t.scdn.co/media/derived/icon-274x274_5ce6e0f681f0a76f9dcf9270dfd18489_0_0_274_274.jpg",
            "width": 274
          }
        ],
        "id": "0JQ5DAqbMKFy0OenPG51Av",
        "name": "Christian & Gospel"
      },
      {
        "href": "https://api.spotify.com/v1/browse/categories/0JQ5DAqbMKFIpEuaCnimBj",
        "icons": [
          {
            "height": 274,
            "url": "https://t.scdn.co/media/derived/soul-274x274_266bc900b35dda8956380cffc73a4d8c_0_0_274_274.jpg",
            "width": 274
          }
        ],
        "id": "0JQ5DAqbMKFIpEuaCnimBj",
        "name": "Soul"
      },
      {
        "href": "https://api.spotify.com/v1/browse/categories/0JQ5DAqbMKFFzDl7qN9Apr",
        "icons": [
          {
            "height": 274,
            "url": "https://t.scdn.co/media/derived/chill-274x274_4c46374f007813dd10b37e8d8fd35b4b_0_0_274_274.jpg",
            "width": 274
          }
        ],
        "id": "0JQ5DAqbMKFFzDl7qN9Apr",
        "name": "Chill"
      },
      {
        "href": "https://api.spotify.com/v1/browse/categories/0JQ5DAqbMKFzHmL4tf05da",
        "icons": [
          {
            "height": 274,
            "url": "https://t.scdn.co/media/original/mood-274x274_976986a31ac8c49794cbdc7246fd5ad7_274x274.jpg",
            "width": 274
          }
        ],
        "id": "0JQ5DAqbMKFzHmL4tf05da",
        "name": "Mood"
      },
      {
        "href": "https://api.spotify.com/v1/browse/categories/0JQ5DAqbMKFPw634sFwguI",
        "icons": [
          {
            "height": null,
            "url": "https://t.scdn.co/images/084155aeaa724ea1bd393a017d67b709",
            "width": null
          }
        ],
        "id": "0JQ5DAqbMKFPw634sFwguI",
        "name": "EQUAL"
      },
      {
        "href": "https://api.spotify.com/v1/browse/categories/0JQ5DAqbMKFFtlLYUHv8bT",
        "icons": [
          {
            "height": null,
            "url": "https://t.scdn.co/images/ee9451b3ed474c82b1da8f9b5eafc88f.jpeg",
            "width": null
          }
        ],
        "id": "0JQ5DAqbMKFFtlLYUHv8bT",
        "name": "Alternative"
      },
      {
        "href": "https://api.spotify.com/v1/browse/categories/0JQ5DAqbMKFAXlCG6QvYQ4",
        "icons": [
          {
            "height": null,
            "url": "https://t.scdn.co/media/links/workout-274x274.jpg",
            "width": null
          }
        ],
        "id": "0JQ5DAqbMKFAXlCG6QvYQ4",
        "name": "Workout"
      },
      {
        "href": "https://api.spotify.com/v1/browse/categories/0JQ5DAqbMKFA6SOHvT3gck",
        "icons": [
          {
            "height": null,
            "url": "https://t.scdn.co/images/fada056dcfd54cd28faf80d62b7059c6.jpeg",
            "width": null
          }
        ],
        "id": "0JQ5DAqbMKFA6SOHvT3gck",
        "name": "Party"
      },
      {
        "href": "https://api.spotify.com/v1/browse/categories/0JQ5DAqbMKFCbimwdOYlsl",
        "icons": [
          {
            "height": 274,
            "url": "https://t.scdn.co/media/original/genre-images-square-274x274_5e50d72b846a198fcd2ca9b3aef5f0c8_274x274.jpg",
            "width": 274
          }
        ],
        "id": "0JQ5DAqbMKFCbimwdOYlsl",
        "name": "Focus"
      },
      {
        "href": "https://api.spotify.com/v1/browse/categories/0JQ5DAqbMKFCuoRTxhYWow",
        "icons": [
          {
            "height": 274,
            "url": "https://t.scdn.co/media/derived/sleep-274x274_0d4f836af8fab7bf31526968073e671c_0_0_274_274.jpg",
            "width": 274
          }
        ],
        "id": "0JQ5DAqbMKFCuoRTxhYWow",
        "name": "Sleep"
      },
      {
        "href": "https://api.spotify.com/v1/browse/categories/0JQ5DAqbMKFIVNxQgRNSg0",
        "icons": [
          {
            "height": null,
            "url": "https://t.scdn.co/images/b611cf5145764c64b80e91ccd5f357c8",
            "width": null
          }
        ],
        "id": "0JQ5DAqbMKFIVNxQgRNSg0",
        "name": "Decades"
      },
      {
        "href": "https://api.spotify.com/v1/browse/categories/0JQ5DAqbMKFOOxftoKZxod",
        "icons": [
          {
            "height": null,
            "url": "https://t.scdn.co/images/c6677aa51acf4121b66b9d1f231bd427.png",
            "width": null
          }
        ],
        "id": "0JQ5DAqbMKFOOxftoKZxod",
        "name": "RADAR"
      },
      {
        "href": "https://api.spotify.com/v1/browse/categories/0JQ5DAqbMKFHOzuVTgTizF",
        "icons": [
          {
            "height": 274,
            "url": "https://t.scdn.co/media/derived/edm-274x274_0ef612604200a9c14995432994455a6d_0_0_274_274.jpg",
            "width": 274
          }
        ],
        "id": "0JQ5DAqbMKFHOzuVTgTizF",
        "name": "Dance/Electronic"
      },
      {
        "href": "https://api.spotify.com/v1/browse/categories/0JQ5DAqbMKFQIL0AXnG5AK",
        "icons": [
          {
            "height": 274,
            "url": "https://t.scdn.co/media/derived/trending-274x274_7b238f7217985e79d3664f2734347b98_0_0_274_274.jpg",
            "width": 274
          }
        ],
        "id": "0JQ5DAqbMKFQIL0AXnG5AK",
        "name": "Trending"
      }
    ],
    "limit": 20,
    "next": "https://api.spotify.com/v1/browse/categories?country=NG&offset=20&limit=20",
    "offset": 0,
    "previous": null,
    "total": 40
  }
}
