{
  "href": "https://api.spotify.com/v1/me/tracks?offset=0&limit=2&locale=en-US,en;q=0.9",
  "items": [
    {
      "added_at": "2022-05-20T07:27:55Z",
      "track": {
        "album": {
          "album_type": "single",
          "artists": [
            {
              "external_urls": {
                "spotify": "https://open.spotify.com/artist/3ge7WahzUrMDAIdlIcchQP"
              },
              "href": "https://api.spotify.com/v1/artists/3ge7WahzUrMDAIdlIcchQP",
              "id": "3ge7WahzUrMDAIdlIcchQP",
              "name": "LAYCON",
              "type": "artist",
              "uri": "spotify:artist:3ge7WahzUrMDAIdlIcchQP"
            },
            {
              "external_urls": {
                "spotify": "https://open.spotify.com/artist/6uVF9SBPINTFs7orI9Twt9"
              },
              "href": "https://api.spotify.com/v1/artists/6uVF9SBPINTFs7orI9Twt9",
              "id": "6uVF9SBPINTFs7orI9Twt9",
              "name": "Toby Shang",
              "type": "artist",
              "uri": "spotify:artist:6uVF9SBPINTFs7orI9Twt9"
            }
          ],
          "available_markets": [
            "AD",
            "AE",
            "AG",
            "AL",
            "AM",
            "AO",
            "AR",
            "AT",
            "AU",
            "AZ",
            "BA",
            "BB",
            "BD",
            "BE",
            "BF",
            "BG",
            "BH",
            "BI",
            "BJ",
            "BN",
            "BO",
            "BR",
            "BS",
            "BT",
            "BW",
            "BY",
            "BZ",
            "CA",
            "CD",
            "CG",
            "CH",
            "CI",
            "CL",
            "CM",
            "CO",
            "CR",
            "CV",
            "CW",
            "CY",
            "CZ",
            "DE",
            "DJ",
            "DK",
            "DM",
            "DO",
            "DZ",
            "EC",
            "EE",
            "EG",
            "ES",
            "ET",
            "FI",
            "FJ",
            "FM",
            "FR",
            "GA",
            "GB",
            "GD",
            "GE",
            "GH",
            "GM",
            "GN",
            "GQ",
            "GR",
            "GT",
            "GW",
            "GY",
            "HK",
            "HN",
            "HR",
            "HT",
            "HU",
            "ID",
            "IE",
            "IL",
            "IN",
            "IQ",
            "IS",
            "IT",
            "JM",
            "JO",
            "JP",
            "KE",
            "KG",
            "KH",
            "KI",
            "KM",
            "KN",
            "KR",
            "KW",
            "KZ",
            "LA",
            "LB",
            "LC",
            "LI",
            "LK",
            "LR",
            "LS",
            "LT",
            "LU",
            "LV",
            "LY",
            "MA",
            "MC",
            "MD",
            "ME",
            "MG",
            "MH",
            "MK",
            "ML",
            "MN",
            "MO",
            "MR",
            "MT",
            "MU",
            "MV",
            "MW",
            "MX",
            "MY",
            "MZ",
            "NA",
            "NE",
            "NG",
            "NI",
            "NL",
            "NO",
            "NP",
            "NR",
            "NZ",
            "OM",
            "PA",
            "PE",
            "PG",
            "PH",
            "PK",
            "PL",
            "PS",
            "PT",
            "PW",
            "PY",
            "QA",
            "RO",
            "RS",
            "RW",
            "SA",
            "SB",
            "SC",
            "SE",
            "SG",
            "SI",
            "SK",
            "SL",
            "SM",
            "SN",
            "SR",
            "ST",
            "SV",
            "SZ",
            "TD",
            "TG",
            "TH",
            "TJ",
            "TL",
            "TN",
            "TO",
            "TR",
            "TT",
            "TV",
            "TW",
            "TZ",
            "UA",
            "UG",
            "US",
            "UY",
            "UZ",
            "VC",
            "VE",
            "VN",
            "VU",
            "WS",
            "XK",
            "ZA",
            "ZM",
            "ZW"
          ],
          "external_urls": {
            "spotify": "https://open.spotify.com/album/3v1wWhmfvktucjlKLADVtN"
          },
          "href": "https://api.spotify.com/v1/albums/3v1wWhmfvktucjlKLADVtN",
          "id": "3v1wWhmfvktucjlKLADVtN",
          "images": [
            {
              "height": 640,
              "url": "https://i.scdn.co/image/ab67616d0000b27341462de7dd99c99f01a96695",
              "width": 640
            },
            {
              "height": 300,
              "url": "https://i.scdn.co/image/ab67616d00001e0241462de7dd99c99f01a96695",
              "width": 300
            },
            {
              "height": 64,
              "url": "https://i.scdn.co/image/ab67616d0000485141462de7dd99c99f01a96695",
              "width": 64
            }
          ],
          "name": "2000",
          "release_date": "2022-05-20",
          "release_date_precision": "day",
          "total_tracks": 1,
          "type": "album",
          "uri": "spotify:album:3v1wWhmfvktucjlKLADVtN"
        },
        "artists": [
          {
            "external_urls": {
              "spotify": "https://open.spotify.com/artist/3ge7WahzUrMDAIdlIcchQP"
            },
            "href": "https://api.spotify.com/v1/artists/3ge7WahzUrMDAIdlIcchQP",
            "id": "3ge7WahzUrMDAIdlIcchQP",
            "name": "LAYCON",
            "type": "artist",
            "uri": "spotify:artist:3ge7WahzUrMDAIdlIcchQP"
          },
          {
            "external_urls": {
              "spotify": "https://open.spotify.com/artist/6uVF9SBPINTFs7orI9Twt9"
            },
            "href": "https://api.spotify.com/v1/artists/6uVF9SBPINTFs7orI9Twt9",
            "id": "6uVF9SBPINTFs7orI9Twt9",
            "name": "Toby Shang",
            "type": "artist",
            "uri": "spotify:artist:6uVF9SBPINTFs7orI9Twt9"
          }
        ],
        "available_markets": [
          "AD",
          "AE",
          "AG",
          "AL",
          "AM",
          "AO",
          "AR",
          "AT",
          "AU",
          "AZ",
          "BA",
          "BB",
          "BD",
          "BE",
          "BF",
          "BG",
          "BH",
          "BI",
          "BJ",
          "BN",
          "BO",
          "BR",
          "BS",
          "BT",
          "BW",
          "BY",
          "BZ",
          "CA",
          "CD",
          "CG",
          "CH",
          "CI",
          "CL",
          "CM",
          "CO",
          "CR",
          "CV",
          "CW",
          "CY",
          "CZ",
          "DE",
          "DJ",
          "DK",
          "DM",
          "DO",
          "DZ",
          "EC",
          "EE",
          "EG",
          "ES",
          "ET",
          "FI",
          "FJ",
          "FM",
          "FR",
          "GA",
          "GB",
          "GD",
          "GE",
          "GH",
          "GM",
          "GN",
          "GQ",
          "GR",
          "GT",
          "GW",
          "GY",
          "HK",
          "HN",
          "HR",
          "HT",
          "HU",
          "ID",
          "IE",
          "IL",
          "IN",
          "IQ",
          "IS",
          "IT",
          "JM",
          "JO",
          "JP",
          "KE",
          "KG",
          "KH",
          "KI",
          "KM",
          "KN",
          "KR",
          "KW",
          "KZ",
          "LA",
          "LB",
          "LC",
          "LI",
          "LK",
          "LR",
          "LS",
          "LT",
          "LU",
          "LV",
          "LY",
          "MA",
          "MC",
          "MD",
          "ME",
          "MG",
          "MH",
          "MK",
          "ML",
          "MN",
          "MO",
          "MR",
          "MT",
          "MU",
          "MV",
          "MW",
          "MX",
          "MY",
          "MZ",
          "NA",
          "NE",
          "NG",
          "NI",
          "NL",
          "NO",
          "NP",
          "NR",
          "NZ",
          "OM",
          "PA",
          "PE",
          "PG",
          "PH",
          "PK",
          "PL",
          "PS",
          "PT",
          "PW",
          "PY",
          "QA",
          "RO",
          "RS",
          "RW",
          "SA",
          "SB",
          "SC",
          "SE",
          "SG",
          "SI",
          "SK",
          "SL",
          "SM",
          "SN",
          "SR",
          "ST",
          "SV",
          "SZ",
          "TD",
          "TG",
          "TH",
          "TJ",
          "TL",
          "TN",
          "TO",
          "TR",
          "TT",
          "TV",
          "TW",
          "TZ",
          "UA",
          "UG",
          "US",
          "UY",
          "UZ",
          "VC",
          "VE",
          "VN",
          "VU",
          "WS",
          "XK",
          "ZA",
          "ZM",
          "ZW"
        ],
        "disc_number": 1,
        "duration_ms": 142080,
        "explicit": true,
        "external_ids": {
          "isrc": "QZHZ52263629"
        },
        "external_urls": {
          "spotify": "https://open.spotify.com/track/6gWzjoe48XfqcE1JrsupMk"
        },
        "href": "https://api.spotify.com/v1/tracks/6gWzjoe48XfqcE1JrsupMk",
        "id": "6gWzjoe48XfqcE1JrsupMk",
        "is_local": false,
        "name": "2000",
        "popularity": 25,
        "preview_url": "https://p.scdn.co/mp3-preview/facd9e5b75514daefb81d6492da242068873fe93?cid=774b29d4f13844c495f206cafdad9c86",
        "track_number": 1,
        "type": "track",
        "uri": "spotify:track:6gWzjoe48XfqcE1JrsupMk"
      }
    },
    {
      "added_at": "2022-03-20T15:42:36Z",
      "track": {
        "album": {
          "album_type": "single",
          "artists": [
            {
              "external_urls": {
                "spotify": "https://open.spotify.com/artist/0lEUtJddtvvDlxtEmF9j0m"
              },
              "href": "https://api.spotify.com/v1/artists/0lEUtJddtvvDlxtEmF9j0m",
              "id": "0lEUtJddtvvDlxtEmF9j0m",
              "name": "Masterkraft",
              "type": "artist",
              "uri": "spotify:artist:0lEUtJddtvvDlxtEmF9j0m"
            }
          ],
          "available_markets": [
            "AD",
            "AE",
            "AG",
            "AL",
            "AM",
            "AO",
            "AR",
            "AT",
            "AU",
            "AZ",
            "BA",
            "BB",
            "BD",
            "BE",
            "BF",
            "BG",
            "BH",
            "BI",
            "BJ",
            "BN",
            "BO",
            "BR",
            "BS",
            "BT",
            "BW",
            "BY",
            "BZ",
            "CA",
            "CD",
            "CG",
            "CH",
            "CI",
            "CL",
            "CM",
            "CO",
            "CR",
            "CV",
            "CW",
            "CY",
            "CZ",
            "DE",
            "DJ",
            "DK",
            "DM",
            "DO",
            "DZ",
            "EC",
            "EE",
            "EG",
            "ES",
            "ET",
            "FI",
            "FJ",
            "FM",
            "FR",
            "GA",
            "GB",
            "GD",
            "GE",
            "GH",
            "GM",
            "GN",
            "GQ",
            "GR",
            "GT",
            "GW",
            "GY",
            "HK",
            "HN",
            "HR",
            "HT",
            "HU",
            "ID",
            "IE",
            "IL",
            "IN",
            "IQ",
            "IS",
            "IT",
            "JM",
            "JO",
            "JP",
            "KE",
            "KG",
            "KH",
            "KI",
            "KM",
            "KN",
            "KR",
            "KW",
            "KZ",
            "LA",
            "LB",
            "LC",
            "LI",
            "LK",
            "LR",
            "LS",
            "LT",
            "LU",
            "LV",
            "LY",
            "MA",
            "MC",
            "MD",
            "ME",
            "MG",
            "MH",
            "MK",
            "ML",
            "MN",
            "MO",
            "MR",
            "MT",
            "MU",
            "MV",
            "MW",
            "MX",
            "MY",
            "MZ",
            "NA",
            "NE",
            "NG",
            "NI",
            "NL",
            "NO",
            "NP",
            "NR",
            "NZ",
            "OM",
            "PA",
            "PE",
            "PG",
            "PH",
            "PK",
            "PL",
            "PS",
            "PT",
            "PW",
            "PY",
            "QA",
            "RO",
            "RS",
            "RW",
            "SA",
            "SB",
            "SC",
            "SE",
            "SG",
            "SI",
            "SK",
            "SL",
            "SM",
            "SN",
            "SR",
            "ST",
            "SV",
            "SZ",
            "TD",
            "TG",
            "TH",
            "TJ",
            "TL",
            "TN",
            "TO",
            "TR",
            "TT",
            "TV",
            "TW",
            "TZ",
            "UA",
            "UG",
            "US",
            "UY",
            "UZ",
            "VC",
            "VE",
            "VN",
            "VU",
            "WS",
            "XK",
            "ZA",
            "ZM",
            "ZW"
          ],
          "external_urls": {
            "spotify": "https://open.spotify.com/album/61WdROyGDMJQDI91kpMVLM"
          },
          "href": "https://api.spotify.com/v1/albums/61WdROyGDMJQDI91kpMVLM",
          "id": "61WdROyGDMJQDI91kpMVLM",
          "images": [
            {
              "height": 640,
              "url": "https://i.scdn.co/image/ab67616d0000b2732545c91af598fe564ec81371",
              "width": 640
            },
            {
              "height": 300,
              "url": "https://i.scdn.co/image/ab67616d00001e022545c91af598fe564ec81371",
              "width": 300
            },
            {
              "height": 64,
              "url": "https://i.scdn.co/image/ab67616d000048512545c91af598fe564ec81371",
              "width": 64
            }
          ],
          "name": "Hallelu",
          "release_date": "2020-12-11",
          "release_date_precision": "day",
          "total_tracks": 1,
          "type": "album",
          "uri": "spotify:album:61WdROyGDMJQDI91kpMVLM"
        },
        "artists": [
          {
            "external_urls": {
              "spotify": "https://open.spotify.com/artist/0lEUtJddtvvDlxtEmF9j0m"
            },
            "href": "https://api.spotify.com/v1/artists/0lEUtJddtvvDlxtEmF9j0m",
            "id": "0lEUtJddtvvDlxtEmF9j0m",
            "name": "Masterkraft",
            "type": "artist",
            "uri": "spotify:artist:0lEUtJddtvvDlxtEmF9j0m"
          },
          {
            "external_urls": {
              "spotify": "https://open.spotify.com/artist/7kK5badbqOjd8WlT2XWMeM"
            },
            "href": "https://api.spotify.com/v1/artists/7kK5badbqOjd8WlT2XWMeM",
            "id": "7kK5badbqOjd8WlT2XWMeM",
            "name": "Bella Shmurda",
            "type": "artist",
            "uri": "spotify:artist:7kK5badbqOjd8WlT2XWMeM"
          },
          {
            "external_urls": {
              "spotify": "https://open.spotify.com/artist/4mSWNal2Ixxf1zrXSTLoep"
            },
            "href": "https://api.spotify.com/v1/artists/4mSWNal2Ixxf1zrXSTLoep",
            "id": "4mSWNal2Ixxf1zrXSTLoep",
            "name": "Zlatan",
            "type": "artist",
            "uri": "spotify:artist:4mSWNal2Ixxf1zrXSTLoep"
          }
        ],
        "available_markets": [
          "AD",
          "AE",
          "AG",
          "AL",
          "AM",
          "AO",
          "AR",
          "AT",
          "AU",
          "AZ",
          "BA",
          "BB",
          "BD",
          "BE",
          "BF",
          "BG",
          "BH",
          "BI",
          "BJ",
          "BN",
          "BO",
          "BR",
          "BS",
          "BT",
          "BW",
          "BY",
          "BZ",
          "CA",
          "CD",
          "CG",
          "CH",
          "CI",
          "CL",
          "CM",
          "CO",
          "CR",
          "CV",
          "CW",
          "CY",
          "CZ",
          "DE",
          "DJ",
          "DK",
          "DM",
          "DO",
          "DZ",
          "EC",
          "EE",
          "EG",
          "ES",
          "ET",
          "FI",
          "FJ",
          "FM",
          "FR",
          "GA",
          "GB",
          "GD",
          "GE",
          "GH",
          "GM",
          "GN",
          "GQ",
          "GR",
          "GT",
          "GW",
          "GY",
          "HK",
          "HN",
          "HR",
          "HT",
          "HU",
          "ID",
          "IE",
          "IL",
          "IN",
          "IQ",
          "IS",
          "IT",
          "JM",
          "JO",
          "JP",
          "KE",
          "KG",
          "KH",
          "KI",
          "KM",
          "KN",
          "KR",
          "KW",
          "KZ",
          "LA",
          "LB",
          "LC",
          "LI",
          "LK",
          "LR",
          "LS",
          "LT",
          "LU",
          "LV",
          "LY",
          "MA",
          "MC",
          "MD",
          "ME",
          "MG",
          "MH",
          "MK",
          "ML",
          "MN",
          "MO",
          "MR",
          "MT",
          "MU",
          "MV",
          "MW",
          "MX",
          "MY",
          "MZ",
          "NA",
          "NE",
          "NG",
          "NI",
          "NL",
          "NO",
          "NP",
          "NR",
          "NZ",
          "OM",
          "PA",
          "PE",
          "PG",
          "PH",
          "PK",
          "PL",
          "PS",
          "PT",
          "PW",
          "PY",
          "QA",
          "RO",
          "RS",
          "RW",
          "SA",
          "SB",
          "SC",
          "SE",
          "SG",
          "SI",
          "SK",
          "SL",
          "SM",
          "SN",
          "SR",
          "ST",
          "SV",
          "SZ",
          "TD",
          "TG",
          "TH",
          "TJ",
          "TL",
          "TN",
          "TO",
          "TR",
          "TT",
          "TV",
          "TW",
          "TZ",
          "UA",
          "UG",
          "US",
          "UY",
          "UZ",
          "VC",
          "VE",
          "VN",
          "VU",
          "WS",
          "XK",
          "ZA",
          "ZM",
          "ZW"
        ],
        "disc_number": 1,
        "duration_ms": 213492,
        "explicit": true,
        "external_ids": {
          "isrc": "QZNJX2028605"
        },
        "external_urls": {
          "spotify": "https://open.spotify.com/track/0C8RxBixBaXYc5enAXIm28"
        },
        "href": "https://api.spotify.com/v1/tracks/0C8RxBixBaXYc5enAXIm28",
        "id": "0C8RxBixBaXYc5enAXIm28",
        "is_local": false,
        "name": "Hallelu",
        "popularity": 39,
        "preview_url": "https://p.scdn.co/mp3-preview/32802a172435dbf5777b9ef961b6922af02378ef?cid=774b29d4f13844c495f206cafdad9c86",
        "track_number": 1,
        "type": "track",
        "uri": "spotify:track:0C8RxBixBaXYc5enAXIm28"
      }
    }
  ],
  "limit": 2,
  "next": "https://api.spotify.com/v1/me/tracks?offset=2&limit=2&locale=en-US,en;q=0.9",
  "offset": 0,
  "previous": null,
  "total": 70
}