{
  "href": "https://api.spotify.com/v1/me/albums?offset=0&limit=2&locale=en-US,en;q=0.9",
  "items": [
    {
      "added_at": "2022-05-09T08:32:39Z",
      "album": {
        "album_type": "single",
        "artists": [
          {
            "external_urls": {
              "spotify": "https://open.spotify.com/artist/7gEgjd9W1P1iAD9FbubrqC"
            },
            "href": "https://api.spotify.com/v1/artists/7gEgjd9W1P1iAD9FbubrqC",
            "id": "7gEgjd9W1P1iAD9FbubrqC",
            "name": "Timaya",
            "type": "artist",
            "uri": "spotify:artist:7gEgjd9W1P1iAD9FbubrqC"
          }
        ],
        "available_markets": [
          "AD",
          "AE",
          "AG",
          "AL",
          "AM",
          "AO",
          "AR",
          "AT",
          "AU",
          "AZ",
          "BA",
          "BB",
          "BD",
          "BE",
          "BF",
          "BG",
          "BH",
          "BI",
          "BJ",
          "BN",
          "BO",
          "BR",
          "BS",
          "BT",
          "BW",
          "BY",
          "BZ",
          "CA",
          "CD",
          "CG",
          "CH",
          "CI",
          "CL",
          "CM",
          "CO",
          "CR",
          "CV",
          "CW",
          "CY",
          "CZ",
          "DE",
          "DJ",
          "DK",
          "DM",
          "DO",
          "DZ",
          "EC",
          "EE",
          "EG",
          "ES",
          "ET",
          "FI",
          "FJ",
          "FM",
          "FR",
          "GA",
          "GB",
          "GD",
          "GE",
          "GH",
          "GM",
          "GN",
          "GQ",
          "GR",
          "GT",
          "GW",
          "GY",
          "HK",
          "HN",
          "HR",
          "HT",
          "HU",
          "ID",
          "IE",
          "IL",
          "IN",
          "IQ",
          "IS",
          "IT",
          "JM",
          "JO",
          "JP",
          "KE",
          "KG",
          "KH",
          "KI",
          "KM",
          "KN",
          "KR",
          "KW",
          "KZ",
          "LA",
          "LB",
          "LC",
          "LI",
          "LK",
          "LR",
          "LS",
          "LT",
          "LU",
          "LV",
          "LY",
          "MA",
          "MC",
          "MD",
          "ME",
          "MG",
          "MH",
          "MK",
          "ML",
          "MN",
          "MO",
          "MR",
          "MT",
          "MU",
          "MV",
          "MW",
          "MX",
          "MY",
          "MZ",
          "NA",
          "NE",
          "NG",
          "NI",
          "NL",
          "NO",
          "NP",
          "NR",
          "NZ",
          "OM",
          "PA",
          "PE",
          "PG",
          "PH",
          "PK",
          "PL",
          "PS",
          "PT",
          "PW",
          "PY",
          "QA",
          "RO",
          "RS",
          "RW",
          "SA",
          "SB",
          "SC",
          "SE",
          "SG",
          "SI",
          "SK",
          "SL",
          "SM",
          "SN",
          "SR",
          "ST",
          "SV",
          "SZ",
          "TD",
          "TG",
          "TH",
          "TJ",
          "TL",
          "TN",
          "TO",
          "TR",
          "TT",
          "TV",
          "TW",
          "TZ",
          "UA",
          "UG",
          "US",
          "UY",
          "UZ",
          "VC",
          "VE",
          "VN",
          "VU",
          "WS",
          "XK",
          "ZA",
          "ZM",
          "ZW"
        ],
        "copyrights": [
          {
            "text": "2021 DM Records Limited / ONErpm",
            "type": "C"
          },
          {
            "text": "2021 DM Records Limited / ONErpm",
            "type": "P"
          }
        ],
        "external_ids": {
          "upc": "616582443632"
        },
        "external_urls": {
          "spotify": "https://open.spotify.com/album/7lVp4uiQQr65XGWwmwQWR0"
        },
        "genres": [],
        "href": "https://api.spotify.com/v1/albums/7lVp4uiQQr65XGWwmwQWR0",
        "id": "7lVp4uiQQr65XGWwmwQWR0",
        "images": [
          {
            "height": 640,
            "url": "https://i.scdn.co/image/ab67616d0000b2732d13db66ef471cff5affa0a6",
            "width": 640
          },
          {
            "height": 300,
            "url": "https://i.scdn.co/image/ab67616d00001e022d13db66ef471cff5affa0a6",
            "width": 300
          },
          {
            "height": 64,
            "url": "https://i.scdn.co/image/ab67616d000048512d13db66ef471cff5affa0a6",
            "width": 64
          }
        ],
        "label": "DM Records Limited",
        "name": "Cold Outside",
        "popularity": 59,
        "release_date": "2021-10-14",
        "release_date_precision": "day",
        "total_tracks": 1,
        "tracks": {
          "href": "https://api.spotify.com/v1/albums/7lVp4uiQQr65XGWwmwQWR0/tracks?offset=0&limit=50&locale=en-US,en;q=0.9",
          "items": [
            {
              "artists": [
                {
                  "external_urls": {
                    "spotify": "https://open.spotify.com/artist/7gEgjd9W1P1iAD9FbubrqC"
                  },
                  "href": "https://api.spotify.com/v1/artists/7gEgjd9W1P1iAD9FbubrqC",
                  "id": "7gEgjd9W1P1iAD9FbubrqC",
                  "name": "Timaya",
                  "type": "artist",
                  "uri": "spotify:artist:7gEgjd9W1P1iAD9FbubrqC"
                },
                {
                  "external_urls": {
                    "spotify": "https://open.spotify.com/artist/3zaDigUwjHvjOkSn0NDf9x"
                  },
                  "href": "https://api.spotify.com/v1/artists/3zaDigUwjHvjOkSn0NDf9x",
                  "id": "3zaDigUwjHvjOkSn0NDf9x",
                  "name": "BNXN fka Buju",
                  "type": "artist",
                  "uri": "spotify:artist:3zaDigUwjHvjOkSn0NDf9x"
                }
              ],
              "available_markets": [
                "AR",
                "AU",
                "AT",
                "BE",
                "BO",
                "BR",
                "BG",
                "CA",
                "CL",
                "CO",
                "CR",
                "CY",
                "CZ",
                "DK",
                "DO",
                "DE",
                "EC",
                "EE",
                "SV",
                "FI",
                "FR",
                "GR",
                "GT",
                "HN",
                "HK",
                "HU",
                "IS",
                "IE",
                "IT",
                "LV",
                "LT",
                "LU",
                "MY",
                "MT",
                "MX",
                "NL",
                "NZ",
                "NI",
                "NO",
                "PA",
                "PY",
                "PE",
                "PH",
                "PL",
                "PT",
                "SG",
                "SK",
                "ES",
                "SE",
                "CH",
                "TW",
                "TR",
                "UY",
                "US",
                "GB",
                "AD",
                "LI",
                "MC",
                "ID",
                "JP",
                "TH",
                "VN",
                "RO",
                "IL",
                "ZA",
                "SA",
                "AE",
                "BH",
                "QA",
                "OM",
                "KW",
                "EG",
                "MA",
                "DZ",
                "TN",
                "LB",
                "JO",
                "PS",
                "IN",
                "BY",
                "KZ",
                "MD",
                "UA",
                "AL",
                "BA",
                "HR",
                "ME",
                "MK",
                "RS",
                "SI",
                "KR",
                "BD",
                "PK",
                "LK",
                "GH",
                "KE",
                "NG",
                "TZ",
                "UG",
                "AG",
                "AM",
                "BS",
                "BB",
                "BZ",
                "BT",
                "BW",
                "BF",
                "CV",
                "CW",
                "DM",
                "FJ",
                "GM",
                "GE",
                "GD",
                "GW",
                "GY",
                "HT",
                "JM",
                "KI",
                "LS",
                "LR",
                "MW",
                "MV",
                "ML",
                "MH",
                "FM",
                "NA",
                "NR",
                "NE",
                "PW",
                "PG",
                "WS",
                "SM",
                "ST",
                "SN",
                "SC",
                "SL",
                "SB",
                "KN",
                "LC",
                "VC",
                "SR",
                "TL",
                "TO",
                "TT",
                "TV",
                "VU",
                "AZ",
                "BN",
                "BI",
                "KH",
                "CM",
                "TD",
                "KM",
                "GQ",
                "SZ",
                "GA",
                "GN",
                "KG",
                "LA",
                "MO",
                "MR",
                "MN",
                "NP",
                "RW",
                "TG",
                "UZ",
                "ZW",
                "BJ",
                "MG",
                "MU",
                "MZ",
                "AO",
                "CI",
                "DJ",
                "ZM",
                "CD",
                "CG",
                "IQ",
                "LY",
                "TJ",
                "VE",
                "ET",
                "XC",
                "XK"
              ],
              "disc_number": 1,
              "duration_ms": 181224,
              "explicit": true,
              "external_urls": {
                "spotify": "https://open.spotify.com/track/2jZ2MrAk8iNZk1dsI0Vr5z"
              },
              "href": "https://api.spotify.com/v1/tracks/2jZ2MrAk8iNZk1dsI0Vr5z",
              "id": "2jZ2MrAk8iNZk1dsI0Vr5z",
              "is_local": false,
              "name": "Cold Outside",
              "preview_url": "https://p.scdn.co/mp3-preview/d64cc24d5a5be3c751f6a54b0a4158d70d603e25?cid=774b29d4f13844c495f206cafdad9c86",
              "track_number": 1,
              "type": "track",
              "uri": "spotify:track:2jZ2MrAk8iNZk1dsI0Vr5z"
            }
          ],
          "limit": 50,
          "next": null,
          "offset": 0,
          "previous": null,
          "total": 1
        },
        "type": "album",
        "uri": "spotify:album:7lVp4uiQQr65XGWwmwQWR0"
      }
    },
    {
      "added_at": "2022-05-07T02:41:53Z",
      "album": {
        "album_type": "single",
        "artists": [
          {
            "external_urls": {
              "spotify": "https://open.spotify.com/artist/1X6cBGnXpEpN7CmflLKmLV"
            },
            "href": "https://api.spotify.com/v1/artists/1X6cBGnXpEpN7CmflLKmLV",
            "id": "1X6cBGnXpEpN7CmflLKmLV",
            "name": "Kizz Daniel",
            "type": "artist",
            "uri": "spotify:artist:1X6cBGnXpEpN7CmflLKmLV"
          },
          {
            "external_urls": {
              "spotify": "https://open.spotify.com/artist/6IhG3Yxm3UW98jhyBvrIut"
            },
            "href": "https://api.spotify.com/v1/artists/6IhG3Yxm3UW98jhyBvrIut",
            "id": "6IhG3Yxm3UW98jhyBvrIut",
            "name": "Tekno",
            "type": "artist",
            "uri": "spotify:artist:6IhG3Yxm3UW98jhyBvrIut"
          }
        ],
        "available_markets": [
          "AD",
          "AE",
          "AG",
          "AL",
          "AM",
          "AO",
          "AR",
          "AT",
          "AU",
          "AZ",
          "BA",
          "BB",
          "BD",
          "BE",
          "BF",
          "BG",
          "BH",
          "BI",
          "BJ",
          "BN",
          "BO",
          "BR",
          "BS",
          "BT",
          "BW",
          "BY",
          "BZ",
          "CA",
          "CD",
          "CG",
          "CH",
          "CI",
          "CL",
          "CM",
          "CO",
          "CR",
          "CV",
          "CW",
          "CY",
          "CZ",
          "DE",
          "DJ",
          "DK",
          "DM",
          "DO",
          "DZ",
          "EC",
          "EE",
          "EG",
          "ES",
          "ET",
          "FI",
          "FJ",
          "FM",
          "FR",
          "GA",
          "GB",
          "GD",
          "GE",
          "GH",
          "GM",
          "GN",
          "GQ",
          "GR",
          "GT",
          "GW",
          "GY",
          "HK",
          "HN",
          "HR",
          "HT",
          "HU",
          "ID",
          "IE",
          "IL",
          "IN",
          "IQ",
          "IS",
          "IT",
          "JM",
          "JO",
          "JP",
          "KE",
          "KG",
          "KH",
          "KI",
          "KM",
          "KN",
          "KR",
          "KW",
          "KZ",
          "LA",
          "LB",
          "LC",
          "LI",
          "LK",
          "LR",
          "LS",
          "LT",
          "LU",
          "LV",
          "LY",
          "MA",
          "MC",
          "MD",
          "ME",
          "MG",
          "MH",
          "MK",
          "ML",
          "MN",
          "MO",
          "MR",
          "MT",
          "MU",
          "MV",
          "MW",
          "MX",
          "MY",
          "MZ",
          "NA",
          "NE",
          "NG",
          "NI",
          "NL",
          "NO",
          "NP",
          "NR",
          "NZ",
          "OM",
          "PA",
          "PE",
          "PG",
          "PH",
          "PK",
          "PL",
          "PS",
          "PT",
          "PW",
          "PY",
          "QA",
          "RO",
          "RS",
          "RW",
          "SA",
          "SB",
          "SC",
          "SE",
          "SG",
          "SI",
          "SK",
          "SL",
          "SM",
          "SN",
          "SR",
          "ST",
          "SV",
          "SZ",
          "TD",
          "TG",
          "TH",
          "TJ",
          "TL",
          "TN",
          "TO",
          "TR",
          "TT",
          "TV",
          "TW",
          "TZ",
          "UA",
          "UG",
          "US",
          "UY",
          "UZ",
          "VC",
          "VE",
          "VN",
          "VU",
          "WS",
          "XK",
          "ZA",
          "ZM",
          "ZW"
        ],
        "copyrights": [
          {
            "text": "2022 FlyBoy INC / EMPIRE",
            "type": "C"
          },
          {
            "text": "2022 FlyBoy INC / EMPIRE",
            "type": "P"
          }
        ],
        "external_ids": {
          "upc": "194690837296"
        },
        "external_urls": {
          "spotify": "https://open.spotify.com/album/0nNEQYgoVlVYZEOrAC2D3h"
        },
        "genres": [],
        "href": "https://api.spotify.com/v1/albums/0nNEQYgoVlVYZEOrAC2D3h",
        "id": "0nNEQYgoVlVYZEOrAC2D3h",
        "images": [
          {
            "height": 640,
            "url": "https://i.scdn.co/image/ab67616d0000b2733b820e00addd0c78e6542dc3",
            "width": 640
          },
          {
            "height": 300,
            "url": "https://i.scdn.co/image/ab67616d00001e023b820e00addd0c78e6542dc3",
            "width": 300
          },
          {
            "height": 64,
            "url": "https://i.scdn.co/image/ab67616d000048513b820e00addd0c78e6542dc3",
            "width": 64
          }
        ],
        "label": "FlyBoy INC / EMPIRE",
        "name": "Buga (Lo Lo Lo)",
        "popularity": 63,
        "release_date": "2022-05-03",
        "release_date_precision": "day",
        "total_tracks": 1,
        "tracks": {
          "href": "https://api.spotify.com/v1/albums/0nNEQYgoVlVYZEOrAC2D3h/tracks?offset=0&limit=50&locale=en-US,en;q=0.9",
          "items": [
            {
              "artists": [
                {
                  "external_urls": {
                    "spotify": "https://open.spotify.com/artist/1X6cBGnXpEpN7CmflLKmLV"
                  },
                  "href": "https://api.spotify.com/v1/artists/1X6cBGnXpEpN7CmflLKmLV",
                  "id": "1X6cBGnXpEpN7CmflLKmLV",
                  "name": "Kizz Daniel",
                  "type": "artist",
                  "uri": "spotify:artist:1X6cBGnXpEpN7CmflLKmLV"
                },
                {
                  "external_urls": {
                    "spotify": "https://open.spotify.com/artist/6IhG3Yxm3UW98jhyBvrIut"
                  },
                  "href": "https://api.spotify.com/v1/artists/6IhG3Yxm3UW98jhyBvrIut",
                  "id": "6IhG3Yxm3UW98jhyBvrIut",
                  "name": "Tekno",
                  "type": "artist",
                  "uri": "spotify:artist:6IhG3Yxm3UW98jhyBvrIut"
                }
              ],
              "available_markets": [
                "AR",
                "AU",
                "AT",
                "BE",
                "BO",
                "BR",
                "BG",
                "CA",
                "CL",
                "CO",
                "CR",
                "CY",
                "CZ",
                "DK",
                "DO",
                "DE",
                "EC",
                "EE",
                "SV",
                "FI",
                "FR",
                "GR",
                "GT",
                "HN",
                "HK",
                "HU",
                "IS",
                "IE",
                "IT",
                "LV",
                "LT",
                "LU",
                "MY",
                "MT",
                "MX",
                "NL",
                "NZ",
                "NI",
                "NO",
                "PA",
                "PY",
                "PE",
                "PH",
                "PL",
                "PT",
                "SG",
                "SK",
                "ES",
                "SE",
                "CH",
                "TW",
                "TR",
                "UY",
                "US",
                "GB",
                "AD",
                "LI",
                "MC",
                "ID",
                "JP",
                "TH",
                "VN",
                "RO",
                "IL",
                "ZA",
                "SA",
                "AE",
                "BH",
                "QA",
                "OM",
                "KW",
                "EG",
                "MA",
                "DZ",
                "TN",
                "LB",
                "JO",
                "PS",
                "IN",
                "BY",
                "KZ",
                "MD",
                "UA",
                "AL",
                "BA",
                "HR",
                "ME",
                "MK",
                "RS",
                "SI",
                "KR",
                "BD",
                "PK",
                "LK",
                "GH",
                "KE",
                "NG",
                "TZ",
                "UG",
                "AG",
                "AM",
                "BS",
                "BB",
                "BZ",
                "BT",
                "BW",
                "BF",
                "CV",
                "CW",
                "DM",
                "FJ",
                "GM",
                "GE",
                "GD",
                "GW",
                "GY",
                "HT",
                "JM",
                "KI",
                "LS",
                "LR",
                "MW",
                "MV",
                "ML",
                "MH",
                "FM",
                "NA",
                "NR",
                "NE",
                "PW",
                "PG",
                "WS",
                "SM",
                "ST",
                "SN",
                "SC",
                "SL",
                "SB",
                "KN",
                "LC",
                "VC",
                "SR",
                "TL",
                "TO",
                "TT",
                "TV",
                "VU",
                "AZ",
                "BN",
                "BI",
                "KH",
                "CM",
                "TD",
                "KM",
                "GQ",
                "SZ",
                "GA",
                "GN",
                "KG",
                "LA",
                "MO",
                "MR",
                "MN",
                "NP",
                "RW",
                "TG",
                "UZ",
                "ZW",
                "BJ",
                "MG",
                "MU",
                "MZ",
                "AO",
                "CI",
                "DJ",
                "ZM",
                "CD",
                "CG",
                "IQ",
                "LY",
                "TJ",
                "VE",
                "ET",
                "XK"
              ],
              "disc_number": 1,
              "duration_ms": 183103,
              "explicit": false,
              "external_urls": {
                "spotify": "https://open.spotify.com/track/4eZZofkV1OQ9GDqAgHqNpA"
              },
              "href": "https://api.spotify.com/v1/tracks/4eZZofkV1OQ9GDqAgHqNpA",
              "id": "4eZZofkV1OQ9GDqAgHqNpA",
              "is_local": false,
              "name": "Buga (Lo Lo Lo)",
              "preview_url": "https://p.scdn.co/mp3-preview/e172343b32e68755c232855041d2bf7dd8643dce?cid=774b29d4f13844c495f206cafdad9c86",
              "track_number": 1,
              "type": "track",
              "uri": "spotify:track:4eZZofkV1OQ9GDqAgHqNpA"
            }
          ],
          "limit": 50,
          "next": null,
          "offset": 0,
          "previous": null,
          "total": 1
        },
        "type": "album",
        "uri": "spotify:album:0nNEQYgoVlVYZEOrAC2D3h"
      }
    }
  ],
  "limit": 2,
  "next": "https://api.spotify.com/v1/me/albums?offset=2&limit=2&locale=en-US,en;q=0.9",
  "offset": 0,
  "previous": null,
  "total": 47
}